\relax 
\providecommand*\new@tpo@label[2]{}
\catcode `"\active 
\babel@aux{ngerman}{}
\citation{Liebig}
\citation{servervirt}
\citation{FranzBA}
\@writefile{toc}{\contentsline {section}{\numberline {1}Container}{2}}
\@writefile{toc}{\contentsline {subsection}{\numberline {1.1}Namespaces}{2}}
\citation{Liebig}
\citation{FranzBA}
\citation{FranzBA}
\@writefile{lof}{\contentsline {figure}{\numberline {1}{\ignorespaces }}{3}}
\newlabel{fig:man_ns}{{1}{3}}
\@writefile{toc}{\contentsline {subsection}{\numberline {1.2}Cgroups}{3}}
\citation{FranzBA}
\citation{DockerMoua}
\citation{Liebig}
\citation{Liebig}
\citation{Liebig}
\citation{FranzBA}
\@writefile{toc}{\contentsline {subsection}{\numberline {1.3}Vergleich: Container - Virtuelle Maschine mit Hypervisor}{4}}
\newlabel{vgl_container}{{1.3}{4}}
\@writefile{lof}{\contentsline {figure}{\numberline {2}{\ignorespaces Aufbau von Docker ab der Einf\IeC {\"u}hrung des OCI-Standards}}{5}}
\newlabel{fig:docker_components}{{2}{5}}
\@writefile{toc}{\contentsline {section}{\numberline {2}Docker}{5}}
\citation{DockerMoua}
\citation{Liebig}
\citation{FranzBA}
\citation{DockerMoua}
\citation{FranzBA}
\@writefile{toc}{\contentsline {subsection}{\numberline {2.1}Docker-Image}{6}}
\newlabel{docker_image}{{2.1}{6}}
\@writefile{toc}{\contentsline {subsection}{\numberline {2.2}Docker-Volume}{6}}
\citation{Liebig}
\citation{FranzBA}
\citation{FranzBA}
\@writefile{toc}{\contentsline {subsection}{\numberline {2.3}Docker-Networking}{7}}
\@writefile{toc}{\contentsline {section}{\numberline {3}Docker-Compose}{7}}
\citation{ApacheJenaFuseki}
\citation{NGNIX}
\@writefile{toc}{\contentsline {section}{\numberline {4}Der Stack um die Applikation Krizer}{8}}
\citation{SemWebMicha}
\citation{SemWebFranz}
\@writefile{lof}{\contentsline {figure}{\numberline {3}{\ignorespaces \IeC {\"U}bersicht des Stacks und dessen Netzwerke}}{9}}
\newlabel{fig:stack}{{3}{9}}
\@writefile{toc}{\contentsline {subsection}{\numberline {4.1}Die Webapplikation Krizer}{9}}
\@writefile{toc}{\contentsline {subsubsection}{\numberline {4.1.1}Funktions\IeC {\"u}berblick: Fu\IeC {\ss }ball - Heirat - Bierkonsum}{9}}
\citation{SemWebFranz}
\@writefile{lof}{\contentsline {figure}{\numberline {4}{\ignorespaces Bildschirmaufnahme der Fu\IeC {\ss }ball-Seite von Krizer}}{10}}
\newlabel{fig:krizer_soccer_page}{{4}{10}}
\@writefile{toc}{\contentsline {subsubsection}{\numberline {4.1.2}Funktions\IeC {\"u}berblick: Konzerte \IeC {\"a}hnlicher K\IeC {\"u}nstler}{10}}
\citation{Kotlin}
\citation{Ktor}
\@writefile{lof}{\contentsline {figure}{\numberline {5}{\ignorespaces Bildschirmaufnahme der Event-Seite von Krizer (oben links), Detailansicht(rechts), Autocomplete-Feld(unten) }}{11}}
\newlabel{fig:krizer_event_page}{{5}{11}}
\@writefile{toc}{\contentsline {subsubsection}{\numberline {4.1.3}Architektur und verwendete Technologien}{11}}
\citation{Gradle}
\@writefile{toc}{\contentsline {subsubsection}{\numberline {4.1.4}Erstellung des Dockerfiles und Definition des Services}{12}}
\newlabel{code:krizer}{{1}{12}}
\@writefile{lol}{\contentsline {lstlisting}{\numberline {1}Krizer Dockerfile}{12}}
\newlabel{code:compose1}{{2}{13}}
\@writefile{lol}{\contentsline {lstlisting}{\numberline {2}docker-compose.yml (1)}{13}}
\@writefile{toc}{\contentsline {subsection}{\numberline {4.2}Fuseki}{14}}
\newlabel{Fuseki}{{4.2}{14}}
\newlabel{code:compose2}{{3}{14}}
\@writefile{lol}{\contentsline {lstlisting}{\numberline {3}docker-compose.yml (2)}{14}}
\@writefile{toc}{\contentsline {subsection}{\numberline {4.3}Nginx}{14}}
\newlabel{code:nginx}{{4}{14}}
\@writefile{lol}{\contentsline {lstlisting}{\numberline {4}nginx Dockerfile}{14}}
\newlabel{code:compose3}{{5}{14}}
\@writefile{lol}{\contentsline {lstlisting}{\numberline {5}docker-compose.yml (3)}{14}}
\@writefile{toc}{\contentsline {section}{\numberline {5}Zusammenfassung und Einsch\IeC {\"a}tzung}{15}}
\bibstyle{alpha}
\bibdata{Projektdokumentation}
\bibcite{DockerMoua}{Adr16}
\bibcite{servervirt}{CB09}
\bibcite{ApacheJenaFuseki}{Fus18}
\bibcite{Gradle}{Inc18}
\bibcite{Kotlin}{Kot18}
\bibcite{SemWebMicha}{Kri18}
\bibcite{Ktor}{Kto17}
\bibcite{Liebig}{Lie17}
\bibcite{NGNIX}{NGN17}
\bibcite{FranzBA}{Sch17}
\bibcite{SemWebFranz}{Sch18}
